{
  "index": 1, 
  "zone": "zone1", 
  "workflow": "montage-workflow2", 
  "data": [
    {
      "timestamp": "2015-06-09T09:37:10", 
      "value": 48.5
    }, 
    {
      "timestamp": "2015-06-09T09:37:06", 
      "value": 0.0
    }, 
    {
      "timestamp": "2015-06-09T09:37:03", 
      "value": 0.0
    }, 
    {
      "timestamp": "2015-06-09T09:36:59", 
      "value": 0.125
    }, 
    {
      "timestamp": "2015-06-09T09:36:55", 
      "value": 0.0
    }, 
    {
      "timestamp": "2015-06-09T09:36:51", 
      "value": 0.125
    }, 
    {
      "timestamp": "2015-06-09T09:36:47", 
      "value": 0.125
    }, 
    {
      "timestamp": "2015-06-09T09:36:43", 
      "value": 0.5
    }, 
    {
      "timestamp": "2015-06-09T09:36:40", 
      "value": 5.0
    }, 
    {
      "timestamp": "2015-06-09T09:36:36", 
      "value": 0.0
    }, 
    {
      "timestamp": "2015-06-09T09:36:33", 
      "value": 0.0
    }, 
    {
      "timestamp": "2015-06-09T09:36:30", 
      "value": 0.0
    }, 
    {
      "timestamp": "2015-06-09T09:36:27", 
      "value": 0.0
    }, 
    {
      "timestamp": "2015-06-09T09:36:24", 
      "value": 0.16666666666666666
    }, 
    {
      "timestamp": "2015-06-09T09:36:21", 
      "value": 0.0
    }, 
    {
      "timestamp": "2015-06-09T09:36:17", 
      "value": 0.0
    }, 
    {
      "timestamp": "2015-06-09T09:36:14", 
      "value": 0.0
    }, 
    {
      "timestamp": "2015-06-09T09:36:11", 
      "value": 0.3333333333333333
    }, 
    {
      "timestamp": "2015-06-09T09:36:08", 
      "value": 0.0
    }, 
    {
      "timestamp": "2015-06-09T09:36:05", 
      "value": 0.0
    }, 
    {
      "timestamp": "2015-06-09T09:36:02", 
      "value": 0.0
    }, 
    {
      "timestamp": "2015-06-09T09:35:59", 
      "value": 0.25
    }, 
    {
      "timestamp": "2015-06-09T09:35:55", 
      "value": 0.0
    }, 
    {
      "timestamp": "2015-06-09T09:35:52", 
      "value": 0.0
    }, 
    {
      "timestamp": "2015-06-09T09:35:49", 
      "value": 0.125
    }, 
    {
      "timestamp": "2015-06-09T09:35:41", 
      "value": 1.125
    }, 
    {
      "timestamp": "2015-06-09T09:35:37", 
      "value": 12.625
    }, 
    {
      "timestamp": "2015-06-09T09:35:33", 
      "value": 52.875
    }, 
    {
      "timestamp": "2015-06-09T09:35:29", 
      "value": 42.9
    }, 
    {
      "timestamp": "2015-06-09T09:35:24", 
      "value": 49.0
    }, 
    {
      "timestamp": "2015-06-09T09:35:20", 
      "value": 48.5
    }, 
    {
      "timestamp": "2015-06-09T09:35:16", 
      "value": 53.25
    }, 
    {
      "timestamp": "2015-06-09T09:35:12", 
      "value": 49.5
    }, 
    {
      "timestamp": "2015-06-09T09:35:08", 
      "value": 47.625
    }, 
    {
      "timestamp": "2015-06-09T09:35:04", 
      "value": 64.66666666666666
    }, 
    {
      "timestamp": "2015-06-09T09:35:01", 
      "value": 50.625
    }, 
    {
      "timestamp": "2015-06-09T09:34:57", 
      "value": 48.0
    }, 
    {
      "timestamp": "2015-06-09T09:34:53", 
      "value": 47.875
    }, 
    {
      "timestamp": "2015-06-09T09:34:49", 
      "value": 48.0
    }, 
    {
      "timestamp": "2015-06-09T09:34:45", 
      "value": 47.25
    }, 
    {
      "timestamp": "2015-06-09T09:34:41", 
      "value": 62.833333333333336
    }, 
    {
      "timestamp": "2015-06-09T09:34:38", 
      "value": 48.25
    }, 
    {
      "timestamp": "2015-06-09T09:34:34", 
      "value": 48.125
    }, 
    {
      "timestamp": "2015-06-09T09:34:30", 
      "value": 48.5
    }, 
    {
      "timestamp": "2015-06-09T09:34:26", 
      "value": 48.375
    }, 
    {
      "timestamp": "2015-06-09T09:34:22", 
      "value": 50.5
    }, 
    {
      "timestamp": "2015-06-09T09:34:18", 
      "value": 48.625
    }, 
    {
      "timestamp": "2015-06-09T09:34:14", 
      "value": 48.0
    }, 
    {
      "timestamp": "2015-06-09T09:34:10", 
      "value": 63.16666666666666
    }, 
    {
      "timestamp": "2015-06-09T09:34:07", 
      "value": 47.5
    }, 
    {
      "timestamp": "2015-06-09T09:34:03", 
      "value": 48.375
    }, 
    {
      "timestamp": "2015-06-09T09:33:59", 
      "value": 52.25
    }, 
    {
      "timestamp": "2015-06-09T09:33:55", 
      "value": 51.875
    }, 
    {
      "timestamp": "2015-06-09T09:33:51", 
      "value": 47.75
    }, 
    {
      "timestamp": "2015-06-09T09:33:47", 
      "value": 48.0
    }, 
    {
      "timestamp": "2015-06-09T09:33:43", 
      "value": 48.125
    }, 
    {
      "timestamp": "2015-06-09T09:33:39", 
      "value": 48.375
    }, 
    {
      "timestamp": "2015-06-09T09:33:35", 
      "value": 47.875
    }, 
    {
      "timestamp": "2015-06-09T09:33:31", 
      "value": 51.5
    }, 
    {
      "timestamp": "2015-06-09T09:33:27", 
      "value": 15.375
    }, 
    {
      "timestamp": "2015-06-09T09:33:23", 
      "value": 3.625
    }, 
    {
      "timestamp": "2015-06-09T09:33:19", 
      "value": 2.875
    }, 
    {
      "timestamp": "2015-06-09T09:33:15", 
      "value": 3.625
    }, 
    {
      "timestamp": "2015-06-09T09:33:11", 
      "value": 1.7999999999999998
    }, 
    {
      "timestamp": "2015-06-09T09:33:06", 
      "value": 3.5
    }, 
    {
      "timestamp": "2015-06-09T09:33:02", 
      "value": 2.375
    }, 
    {
      "timestamp": "2015-06-09T09:32:58", 
      "value": 3.5
    }, 
    {
      "timestamp": "2015-06-09T09:32:54", 
      "value": 2.375
    }, 
    {
      "timestamp": "2015-06-09T09:32:50", 
      "value": 3.1999999999999997
    }, 
    {
      "timestamp": "2015-06-09T09:32:45", 
      "value": 1.875
    }, 
    {
      "timestamp": "2015-06-09T09:32:41", 
      "value": 4.5
    }, 
    {
      "timestamp": "2015-06-09T09:32:37", 
      "value": 4.0
    }, 
    {
      "timestamp": "2015-06-09T09:32:33", 
      "value": 4.125
    }, 
    {
      "timestamp": "2015-06-09T09:32:29", 
      "value": 5.0
    }, 
    {
      "timestamp": "2015-06-09T09:32:25", 
      "value": 4.2
    }, 
    {
      "timestamp": "2015-06-09T09:32:20", 
      "value": 4.875
    }, 
    {
      "timestamp": "2015-06-09T09:32:16", 
      "value": 5.0
    }, 
    {
      "timestamp": "2015-06-09T09:32:12", 
      "value": 4.7
    }, 
    {
      "timestamp": "2015-06-09T09:32:07", 
      "value": 3.9
    }, 
    {
      "timestamp": "2015-06-09T09:32:02", 
      "value": 5.125
    }, 
    {
      "timestamp": "2015-06-09T09:31:58", 
      "value": 3.125
    }, 
    {
      "timestamp": "2015-06-09T09:31:54", 
      "value": 10.5
    }, 
    {
      "timestamp": "2015-06-09T09:31:50", 
      "value": 0.25
    }, 
    {
      "timestamp": "2015-06-09T09:31:46", 
      "value": 7.199999999999999
    }, 
    {
      "timestamp": "2015-06-09T09:31:41", 
      "value": 2.375
    }, 
    {
      "timestamp": "2015-06-09T09:31:37", 
      "value": 15.0
    }, 
    {
      "timestamp": "2015-06-09T09:31:32", 
      "value": 36.875
    }, 
    {
      "timestamp": "2015-06-09T09:31:28", 
      "value": 42.5
    }, 
    {
      "timestamp": "2015-06-09T09:31:24", 
      "value": 27.5
    }, 
    {
      "timestamp": "2015-06-09T09:31:20", 
      "value": 41.199999999999996
    }, 
    {
      "timestamp": "2015-06-09T09:31:15", 
      "value": 39.0
    }, 
    {
      "timestamp": "2015-06-09T09:31:11", 
      "value": 27.125
    }, 
    {
      "timestamp": "2015-06-09T09:31:07", 
      "value": 42.125
    }, 
    {
      "timestamp": "2015-06-09T09:31:03", 
      "value": 18.0
    }, 
    {
      "timestamp": "2015-06-09T09:30:59", 
      "value": 23.5
    }, 
    {
      "timestamp": "2015-06-09T09:30:55", 
      "value": 24.125
    }, 
    {
      "timestamp": "2015-06-09T09:30:51", 
      "value": 39.875
    }, 
    {
      "timestamp": "2015-06-09T09:30:47", 
      "value": 21.75
    }, 
    {
      "timestamp": "2015-06-09T09:30:43", 
      "value": 4.7
    }, 
    {
      "timestamp": "2015-06-09T09:30:38", 
      "value": 0.125
    }, 
    {
      "timestamp": "2015-06-09T09:30:34", 
      "value": 0.375
    }, 
    {
      "timestamp": "2015-06-09T09:30:30", 
      "value": 5.8999999999999995
    }, 
    {
      "timestamp": "2015-06-09T09:30:25", 
      "value": 31.0
    }, 
    {
      "timestamp": "2015-06-09T09:30:21", 
      "value": 18.3
    }, 
    {
      "timestamp": "2015-06-09T09:30:16", 
      "value": 3.5
    }, 
    {
      "timestamp": "2015-06-09T09:30:11", 
      "value": 7.625
    }, 
    {
      "timestamp": "2015-06-09T09:30:07", 
      "value": 11.6
    }, 
    {
      "timestamp": "2015-06-09T09:30:02", 
      "value": 39.125
    }, 
    {
      "timestamp": "2015-06-09T09:29:58", 
      "value": 29.25
    }, 
    {
      "timestamp": "2015-06-09T09:29:54", 
      "value": 16.125
    }, 
    {
      "timestamp": "2015-06-09T09:29:50", 
      "value": 31.799999999999997
    }, 
    {
      "timestamp": "2015-06-09T09:29:45", 
      "value": 5.1
    }, 
    {
      "timestamp": "2015-06-09T09:29:40", 
      "value": 5.375
    }, 
    {
      "timestamp": "2015-06-09T09:29:36", 
      "value": 4.8
    }, 
    {
      "timestamp": "2015-06-09T09:29:31", 
      "value": 5.3999999999999995
    }, 
    {
      "timestamp": "2015-06-09T09:29:26", 
      "value": 10.5
    }, 
    {
      "timestamp": "2015-06-09T09:29:22", 
      "value": 10.2
    }, 
    {
      "timestamp": "2015-06-09T09:29:17", 
      "value": 6.6
    }, 
    {
      "timestamp": "2015-06-09T09:29:12", 
      "value": 7.75
    }, 
    {
      "timestamp": "2015-06-09T09:29:08", 
      "value": 6.6
    }, 
    {
      "timestamp": "2015-06-09T09:29:03", 
      "value": 6.5
    }, 
    {
      "timestamp": "2015-06-09T09:28:58", 
      "value": 14.625
    }, 
    {
      "timestamp": "2015-06-09T09:28:54", 
      "value": 9.0
    }, 
    {
      "timestamp": "2015-06-09T09:28:49", 
      "value": 6.8
    }, 
    {
      "timestamp": "2015-06-09T09:28:44", 
      "value": 8.375
    }, 
    {
      "timestamp": "2015-06-09T09:28:40", 
      "value": 13.375
    }, 
    {
      "timestamp": "2015-06-09T09:28:36", 
      "value": 36.375
    }, 
    {
      "timestamp": "2015-06-09T09:28:32", 
      "value": 41.375
    }, 
    {
      "timestamp": "2015-06-09T09:28:28", 
      "value": 21.625
    }, 
    {
      "timestamp": "2015-06-09T09:28:24", 
      "value": 0.375
    }, 
    {
      "timestamp": "2015-06-09T09:28:20", 
      "value": 10.2
    }, 
    {
      "timestamp": "2015-06-09T09:28:15", 
      "value": 27.25
    }, 
    {
      "timestamp": "2015-06-09T09:28:11", 
      "value": 2.875
    }, 
    {
      "timestamp": "2015-06-09T09:28:07", 
      "value": 20.375
    }, 
    {
      "timestamp": "2015-06-09T09:28:03", 
      "value": 25.4
    }
  ], 
  "instance": "d460ad39-f7bd-4da1-85e0-8ecbd49b896d", 
  "job": "stepA", 
  "type": "cpu util"
}