{
  "index": 1, 
  "zone": "zone1", 
  "workflow": "montage-workflow1", 
  "data": [
    {
      "timestamp": "2015-05-21T20:45:32", 
      "value": 0.5
    }, 
    {
      "timestamp": "2015-05-21T20:45:28", 
      "value": 0.25
    }, 
    {
      "timestamp": "2015-05-21T20:45:24", 
      "value": 0.5
    }, 
    {
      "timestamp": "2015-05-21T20:45:20", 
      "value": 0.19999999999999998
    }, 
    {
      "timestamp": "2015-05-21T20:45:15", 
      "value": 0.8333333333333333
    }, 
    {
      "timestamp": "2015-05-21T20:45:09", 
      "value": 8.0
    }, 
    {
      "timestamp": "2015-05-21T20:45:05", 
      "value": 0.0
    }, 
    {
      "timestamp": "2015-05-21T20:45:02", 
      "value": 0.0
    }, 
    {
      "timestamp": "2015-05-21T20:44:58", 
      "value": 0.0
    }, 
    {
      "timestamp": "2015-05-21T20:44:55", 
      "value": 0.0
    }, 
    {
      "timestamp": "2015-05-21T20:44:52", 
      "value": 0.3333333333333333
    }, 
    {
      "timestamp": "2015-05-21T20:44:49", 
      "value": 0.0
    }, 
    {
      "timestamp": "2015-05-21T20:44:46", 
      "value": 0.25
    }, 
    {
      "timestamp": "2015-05-21T20:44:42", 
      "value": 59.0
    }, 
    {
      "timestamp": "2015-05-21T20:44:39", 
      "value": 123.33333333333331
    }, 
    {
      "timestamp": "2015-05-21T20:44:36", 
      "value": 94.75
    }, 
    {
      "timestamp": "2015-05-21T20:44:32", 
      "value": 93.0
    }, 
    {
      "timestamp": "2015-05-21T20:44:28", 
      "value": 92.25
    }, 
    {
      "timestamp": "2015-05-21T20:44:24", 
      "value": 119.33333333333331
    }, 
    {
      "timestamp": "2015-05-21T20:44:21", 
      "value": 83.25
    }, 
    {
      "timestamp": "2015-05-21T20:44:17", 
      "value": 8.5
    }, 
    {
      "timestamp": "2015-05-21T20:44:13", 
      "value": 7.5
    }, 
    {
      "timestamp": "2015-05-21T20:44:09", 
      "value": 12.0
    }, 
    {
      "timestamp": "2015-05-21T20:44:05", 
      "value": 11.25
    }, 
    {
      "timestamp": "2015-05-21T20:44:01", 
      "value": 13.333333333333332
    }, 
    {
      "timestamp": "2015-05-21T20:43:58", 
      "value": 17.5
    }, 
    {
      "timestamp": "2015-05-21T20:43:54", 
      "value": 6.666666666666666
    }, 
    {
      "timestamp": "2015-05-21T20:43:51", 
      "value": 20.25
    }, 
    {
      "timestamp": "2015-05-21T20:43:47", 
      "value": 76.66666666666666
    }, 
    {
      "timestamp": "2015-05-21T20:43:44", 
      "value": 38.5
    }, 
    {
      "timestamp": "2015-05-21T20:43:40", 
      "value": 37.0
    }, 
    {
      "timestamp": "2015-05-21T20:43:36", 
      "value": 90.33333333333333
    }, 
    {
      "timestamp": "2015-05-21T20:43:33", 
      "value": 54.0
    }, 
    {
      "timestamp": "2015-05-21T20:43:30", 
      "value": 85.5
    }, 
    {
      "timestamp": "2015-05-21T20:43:26", 
      "value": 86.33333333333333
    }, 
    {
      "timestamp": "2015-05-21T20:43:23", 
      "value": 53.33333333333333
    }, 
    {
      "timestamp": "2015-05-21T20:43:20", 
      "value": 75.5
    }, 
    {
      "timestamp": "2015-05-21T20:43:16", 
      "value": 81.33333333333333
    }, 
    {
      "timestamp": "2015-05-21T20:43:13", 
      "value": 26.0
    }, 
    {
      "timestamp": "2015-05-21T20:43:09", 
      "value": 49.0
    }, 
    {
      "timestamp": "2015-05-21T20:43:06", 
      "value": 61.75
    }, 
    {
      "timestamp": "2015-05-21T20:43:02", 
      "value": 99.0
    }, 
    {
      "timestamp": "2015-05-21T20:42:59", 
      "value": 25.0
    }, 
    {
      "timestamp": "2015-05-21T20:42:56", 
      "value": 10.5
    }, 
    {
      "timestamp": "2015-05-21T20:42:52", 
      "value": 1.25
    }, 
    {
      "timestamp": "2015-05-21T20:42:48", 
      "value": 0.0
    }, 
    {
      "timestamp": "2015-05-21T20:42:45", 
      "value": 0.0
    }, 
    {
      "timestamp": "2015-05-21T20:42:41", 
      "value": 8.333333333333332
    }, 
    {
      "timestamp": "2015-05-21T20:42:38", 
      "value": 38.0
    }, 
    {
      "timestamp": "2015-05-21T20:42:34", 
      "value": 53.0
    }, 
    {
      "timestamp": "2015-05-21T20:42:31", 
      "value": 27.75
    }, 
    {
      "timestamp": "2015-05-21T20:42:27", 
      "value": 10.0
    }, 
    {
      "timestamp": "2015-05-21T20:42:23", 
      "value": 10.333333333333332
    }, 
    {
      "timestamp": "2015-05-21T20:42:20", 
      "value": 9.75
    }, 
    {
      "timestamp": "2015-05-21T20:42:16", 
      "value": 14.25
    }, 
    {
      "timestamp": "2015-05-21T20:42:12", 
      "value": 16.0
    }, 
    {
      "timestamp": "2015-05-21T20:42:09", 
      "value": 8.0
    }, 
    {
      "timestamp": "2015-05-21T20:42:05", 
      "value": 41.75
    }, 
    {
      "timestamp": "2015-05-21T20:42:01", 
      "value": 61.333333333333336
    }, 
    {
      "timestamp": "2015-05-21T20:41:58", 
      "value": 20.333333333333332
    }, 
    {
      "timestamp": "2015-05-21T20:41:55", 
      "value": 4.0
    }, 
    {
      "timestamp": "2015-05-21T20:41:51", 
      "value": 7.333333333333332
    }, 
    {
      "timestamp": "2015-05-21T20:41:48", 
      "value": 39.0
    }, 
    {
      "timestamp": "2015-05-21T20:41:44", 
      "value": 12.5
    }, 
    {
      "timestamp": "2015-05-21T20:41:40", 
      "value": 14.666666666666664
    }, 
    {
      "timestamp": "2015-05-21T20:41:37", 
      "value": 10.5
    }, 
    {
      "timestamp": "2015-05-21T20:41:33", 
      "value": 10.5
    }, 
    {
      "timestamp": "2015-05-21T20:41:29", 
      "value": 11.0
    }, 
    {
      "timestamp": "2015-05-21T20:41:25", 
      "value": 11.25
    }, 
    {
      "timestamp": "2015-05-21T20:41:21", 
      "value": 26.0
    }, 
    {
      "timestamp": "2015-05-21T20:41:18", 
      "value": 11.0
    }, 
    {
      "timestamp": "2015-05-21T20:41:14", 
      "value": 23.5
    }, 
    {
      "timestamp": "2015-05-21T20:41:10", 
      "value": 9.75
    }, 
    {
      "timestamp": "2015-05-21T20:41:06", 
      "value": 16.666666666666664
    }, 
    {
      "timestamp": "2015-05-21T20:41:03", 
      "value": 10.75
    }, 
    {
      "timestamp": "2015-05-21T20:40:59", 
      "value": 11.0
    }, 
    {
      "timestamp": "2015-05-21T20:40:55", 
      "value": 10.0
    }, 
    {
      "timestamp": "2015-05-21T20:40:51", 
      "value": 21.666666666666664
    }, 
    {
      "timestamp": "2015-05-21T20:40:48", 
      "value": 19.75
    }, 
    {
      "timestamp": "2015-05-21T20:40:44", 
      "value": 11.5
    }, 
    {
      "timestamp": "2015-05-21T20:40:40", 
      "value": 13.25
    }, 
    {
      "timestamp": "2015-05-21T20:40:36", 
      "value": 19.333333333333332
    }, 
    {
      "timestamp": "2015-05-21T20:40:33", 
      "value": 15.0
    }, 
    {
      "timestamp": "2015-05-21T20:40:29", 
      "value": 24.5
    }, 
    {
      "timestamp": "2015-05-21T20:40:25", 
      "value": 65.66666666666666
    }, 
    {
      "timestamp": "2015-05-21T20:40:22", 
      "value": 66.0
    }, 
    {
      "timestamp": "2015-05-21T20:40:19", 
      "value": 60.25
    }, 
    {
      "timestamp": "2015-05-21T20:40:15", 
      "value": 30.666666666666668
    }, 
    {
      "timestamp": "2015-05-21T20:40:12", 
      "value": 0.6666666666666666
    }, 
    {
      "timestamp": "2015-05-21T20:40:09", 
      "value": 23.333333333333332
    }, 
    {
      "timestamp": "2015-05-21T20:40:06", 
      "value": 48.0
    }, 
    {
      "timestamp": "2015-05-21T20:40:02", 
      "value": 5.333333333333333
    }, 
    {
      "timestamp": "2015-05-21T20:39:59", 
      "value": 11.0
    }, 
    {
      "timestamp": "2015-05-21T20:39:55", 
      "value": 71.33333333333333
    }, 
    {
      "timestamp": "2015-05-21T20:39:52", 
      "value": 38.33333333333333
    }, 
    {
      "timestamp": "2015-05-21T20:39:49", 
      "value": 11.75
    }, 
    {
      "timestamp": "2015-05-21T20:39:45", 
      "value": 94.0
    }
  ], 
  "instance": "c8374947-1501-4d35-810f-030b070894db", 
  "job": "stepA", 
  "type": "cpu util"
}